/*
WARNING: Do NOT edit the input and output ports in this file in a text
editor if you plan to continue editing the block that represents it in
the Block Editor! File corruption is VERY likely to occur.
*/
/*
Copyright (C) 2018  Intel Corporation. All rights reserved.
Your use of Intel Corporation's design tools, logic functions 
and other software and tools, and its AMPP partner logic 
functions, and any output files from any of the foregoing 
(including device programming or simulation files), and any 
associated documentation or information are expressly subject 
to the terms and conditions of the Intel Program License 
Subscription Agreement, the Intel Quartus Prime License Agreement,
the Intel FPGA IP License Agreement, or other applicable license
agreement, including, without limitation, that your use is for
the sole purpose of programming logic devices manufactured by
Intel and sold by Intel or its authorized distributors.  Please
refer to the applicable agreement for further details.
*/
(header "graphic" (version "1.4"))
(pin
	(input)
	(rect -64 192 120 208)
	(text "INPUT" (rect 141 0 169 10)(font "Arial" (font_size 6)))
	(text "A[3..0][3..0][3..0]" (rect 5 0 89 12)(font "Arial" ))
	(pt 184 8)
	(drawing
		(line (pt 100 12)(pt 125 12))
		(line (pt 100 4)(pt 125 4))
		(line (pt 129 8)(pt 184 8))
		(line (pt 100 12)(pt 100 4))
		(line (pt 125 4)(pt 129 8))
		(line (pt 125 12)(pt 129 8))
	)
	(text "VCC" (rect 144 7 164 17)(font "Arial" (font_size 6)))
)
(pin
	(input)
	(rect 416 120 584 136)
	(text "INPUT" (rect 125 0 153 10)(font "Arial" (font_size 6)))
	(text "EN" (rect 5 0 18 17)(font "Intel Clear" ))
	(pt 168 8)
	(drawing
		(line (pt 84 12)(pt 109 12))
		(line (pt 84 4)(pt 109 4))
		(line (pt 113 8)(pt 168 8))
		(line (pt 84 12)(pt 84 4))
		(line (pt 109 4)(pt 113 8))
		(line (pt 109 12)(pt 113 8))
	)
	(text "VCC" (rect 128 7 148 17)(font "Arial" (font_size 6)))
)
(pin
	(input)
	(rect -72 56 96 72)
	(text "INPUT" (rect 125 0 153 10)(font "Arial" (font_size 6)))
	(text "CLK" (rect 5 0 27 12)(font "Arial" ))
	(pt 168 8)
	(drawing
		(line (pt 84 12)(pt 109 12))
		(line (pt 84 4)(pt 109 4))
		(line (pt 113 8)(pt 168 8))
		(line (pt 84 12)(pt 84 4))
		(line (pt 109 4)(pt 113 8))
		(line (pt 109 12)(pt 113 8))
	)
	(text "VCC" (rect 128 7 148 17)(font "Arial" (font_size 6)))
)
(pin
	(input)
	(rect -56 520 112 536)
	(text "INPUT" (rect 125 0 153 10)(font "Arial" (font_size 6)))
	(text "B[3..0][3..0]" (rect 5 0 60 17)(font "Intel Clear" ))
	(pt 168 8)
	(drawing
		(line (pt 84 12)(pt 109 12))
		(line (pt 84 4)(pt 109 4))
		(line (pt 113 8)(pt 168 8))
		(line (pt 84 12)(pt 84 4))
		(line (pt 109 4)(pt 113 8))
		(line (pt 109 12)(pt 113 8))
	)
	(text "VCC" (rect 128 7 148 17)(font "Arial" (font_size 6)))
)
(pin
	(output)
	(rect 1272 296 1449 312)
	(text "OUTPUT" (rect 1 0 39 10)(font "Arial" (font_size 6)))
	(text "OUTP[3..0][7..0]" (rect 90 0 171 12)(font "Arial" ))
	(pt 0 8)
	(drawing
		(line (pt 0 8)(pt 52 8))
		(line (pt 52 4)(pt 78 4))
		(line (pt 52 12)(pt 78 12))
		(line (pt 52 12)(pt 52 4))
		(line (pt 78 4)(pt 82 8))
		(line (pt 82 8)(pt 78 12))
		(line (pt 78 12)(pt 82 8))
	)
)
(symbol
	(rect 648 256 904 368)
	(text "MVM" (rect 5 0 28 12)(font "Arial" ))
	(text "inst" (rect 8 96 25 108)(font "Arial" ))
	(port
		(pt 0 32)
		(input)
		(text "en" (rect 0 0 11 12)(font "Arial" ))
		(text "en" (rect 21 27 32 39)(font "Arial" ))
		(line (pt 0 32)(pt 16 32))
	)
	(port
		(pt 0 48)
		(input)
		(text "mat[n-1..0][m-1..0][3..0]" (rect 0 0 119 12)(font "Arial" ))
		(text "mat[n-1..0][m-1..0][3..0]" (rect 21 43 140 55)(font "Arial" ))
		(line (pt 0 48)(pt 16 48)(line_width 3))
	)
	(port
		(pt 0 64)
		(input)
		(text "vec[m-1..0][3..0]" (rect 0 0 83 12)(font "Arial" ))
		(text "vec[m-1..0][3..0]" (rect 21 59 104 71)(font "Arial" ))
		(line (pt 0 64)(pt 16 64)(line_width 3))
	)
	(port
		(pt 256 32)
		(output)
		(text "mv[n-1..0][7..0]" (rect 0 0 77 12)(font "Arial" ))
		(text "mv[n-1..0][7..0]" (rect 170 27 247 39)(font "Arial" ))
		(line (pt 256 32)(pt 240 32)(line_width 3))
	)
	(parameter
		"M"
		"4"
		""
		(type "PARAMETER_SIGNED_DEC")	)
	(parameter
		"N"
		"4"
		""
		(type "PARAMETER_SIGNED_DEC")	)
	(drawing
		(rectangle (rect 16 16 240 96))
	)
	(annotation_block (parameter)(rect 688 192 864 256))
)
(symbol
	(rect 192 128 368 272)
	(text "LPM_FF" (rect 19 0 78 16)(font "Arial" (font_size 10)))
	(text "inst2" (rect 3 133 25 150)(font "Intel Clear" ))
	(port
		(pt 0 104)
		(input)
		(text "enable" (rect 20 97 57 111)(font "Arial" (font_size 8)))
		(text "enable" (rect 20 97 57 111)(font "Arial" (font_size 8)))
		(line (pt 0 104)(pt 16 104))
	)
	(port
		(pt 0 88)
		(input)
		(text "clock" (rect 20 81 49 95)(font "Arial" (font_size 8))(invisible))
		(text "clock" (rect 20 81 49 95)(font "Arial" (font_size 8))(invisible))
		(line (pt 0 88)(pt 16 88))
	)
	(port
		(pt 0 24)
		(input)
		(text "aload" (rect 20 17 50 31)(font "Arial" (font_size 8)))
		(text "aload" (rect 20 17 50 31)(font "Arial" (font_size 8)))
		(line (pt 0 24)(pt 16 24))
	)
	(port
		(pt 0 40)
		(input)
		(text "sset" (rect 20 33 44 47)(font "Arial" (font_size 8)))
		(text "sset" (rect 20 33 44 47)(font "Arial" (font_size 8)))
		(line (pt 0 40)(pt 16 40))
	)
	(port
		(pt 0 56)
		(input)
		(text "sload" (rect 20 49 50 63)(font "Arial" (font_size 8)))
		(text "sload" (rect 20 49 50 63)(font "Arial" (font_size 8)))
		(line (pt 0 56)(pt 16 56))
	)
	(port
		(pt 88 0)
		(input)
		(text "aset" (rect 79 17 103 31)(font "Arial" (font_size 8)))
		(text "aset" (rect 79 17 103 31)(font "Arial" (font_size 8)))
		(line (pt 88 16)(pt 88 0))
	)
	(port
		(pt 0 120)
		(input)
		(text "sclr" (rect 20 113 41 127)(font "Arial" (font_size 8)))
		(text "sclr" (rect 20 113 41 127)(font "Arial" (font_size 8)))
		(line (pt 0 120)(pt 16 120))
	)
	(port
		(pt 88 144)
		(input)
		(text "aclr" (rect 80 113 101 127)(font "Arial" (font_size 8)))
		(text "aclr" (rect 80 113 101 127)(font "Arial" (font_size 8)))
		(line (pt 88 144)(pt 88 128))
	)
	(port
		(pt 0 72)
		(input)
		(text "data[LPM_WIDTH-1..0]" (rect 20 63 146 77)(font "Arial" (font_size 8)))
		(text "data[]" (rect 20 63 51 77)(font "Arial" (font_size 8)))
		(line (pt 0 72)(pt 16 72)(line_width 3))
	)
	(port
		(pt 176 88)
		(output)
		(text "q[LPM_WIDTH-1..0]" (rect 144 81 252 95)(font "Arial" (font_size 8)))
		(text "q[]" (rect 144 81 158 95)(font "Arial" (font_size 8)))
		(line (pt 160 88)(pt 176 88)(line_width 3))
	)
	(parameter
		"LPM_AVALUE"
		""
		"Unsigned value associated with the aset port"
	)
	(parameter
		"LPM_FFTYPE"
		""
		"Selects behavior as DFF or TFF"
		"\"DFF\"" "\"TFF\"" 
	)
	(parameter
		"LPM_SVALUE"
		""
		"Unsigned value associated with the sset port"
	)
	(parameter
		"LPM_WIDTH"
		"12"
		"Width of I/O, any integer > 0"
		" 1" " 2" " 3" " 4" " 5" " 6" " 7" " 8" " 9" "10" "11" "12" "13" "14" "15" "16" "20" "24" "28" "32" "40" "48" "56" "64" 
	)
	(drawing
		(line (pt 16 16)(pt 160 16))
		(line (pt 16 128)(pt 160 128))
		(line (pt 160 128)(pt 160 16))
		(line (pt 16 128)(pt 16 16))
		(line (pt 16 80)(pt 24 88))
		(line (pt 24 88)(pt 16 96))
	)
	(annotation_block (parameter)(rect 216 32 353 127))
)
(symbol
	(rect 192 456 368 600)
	(text "LPM_FF" (rect 19 0 78 16)(font "Arial" (font_size 10)))
	(text "inst1" (rect 3 133 25 150)(font "Intel Clear" ))
	(port
		(pt 0 104)
		(input)
		(text "enable" (rect 20 97 57 111)(font "Arial" (font_size 8)))
		(text "enable" (rect 20 97 57 111)(font "Arial" (font_size 8)))
		(line (pt 0 104)(pt 16 104))
	)
	(port
		(pt 0 88)
		(input)
		(text "clock" (rect 20 81 49 95)(font "Arial" (font_size 8))(invisible))
		(text "clock" (rect 20 81 49 95)(font "Arial" (font_size 8))(invisible))
		(line (pt 0 88)(pt 16 88))
	)
	(port
		(pt 0 24)
		(input)
		(text "aload" (rect 20 17 50 31)(font "Arial" (font_size 8)))
		(text "aload" (rect 20 17 50 31)(font "Arial" (font_size 8)))
		(line (pt 0 24)(pt 16 24))
	)
	(port
		(pt 0 40)
		(input)
		(text "sset" (rect 20 33 44 47)(font "Arial" (font_size 8)))
		(text "sset" (rect 20 33 44 47)(font "Arial" (font_size 8)))
		(line (pt 0 40)(pt 16 40))
	)
	(port
		(pt 0 56)
		(input)
		(text "sload" (rect 20 49 50 63)(font "Arial" (font_size 8)))
		(text "sload" (rect 20 49 50 63)(font "Arial" (font_size 8)))
		(line (pt 0 56)(pt 16 56))
	)
	(port
		(pt 88 0)
		(input)
		(text "aset" (rect 79 17 103 31)(font "Arial" (font_size 8)))
		(text "aset" (rect 79 17 103 31)(font "Arial" (font_size 8)))
		(line (pt 88 16)(pt 88 0))
	)
	(port
		(pt 0 120)
		(input)
		(text "sclr" (rect 20 113 41 127)(font "Arial" (font_size 8)))
		(text "sclr" (rect 20 113 41 127)(font "Arial" (font_size 8)))
		(line (pt 0 120)(pt 16 120))
	)
	(port
		(pt 88 144)
		(input)
		(text "aclr" (rect 80 113 101 127)(font "Arial" (font_size 8)))
		(text "aclr" (rect 80 113 101 127)(font "Arial" (font_size 8)))
		(line (pt 88 144)(pt 88 128))
	)
	(port
		(pt 0 72)
		(input)
		(text "data[LPM_WIDTH-1..0]" (rect 20 63 146 77)(font "Arial" (font_size 8)))
		(text "data[]" (rect 20 63 51 77)(font "Arial" (font_size 8)))
		(line (pt 0 72)(pt 16 72)(line_width 3))
	)
	(port
		(pt 176 88)
		(output)
		(text "q[LPM_WIDTH-1..0]" (rect 144 81 252 95)(font "Arial" (font_size 8)))
		(text "q[]" (rect 144 81 158 95)(font "Arial" (font_size 8)))
		(line (pt 160 88)(pt 176 88)(line_width 3))
	)
	(parameter
		"LPM_AVALUE"
		""
		"Unsigned value associated with the aset port"
	)
	(parameter
		"LPM_FFTYPE"
		""
		"Selects behavior as DFF or TFF"
		"\"DFF\"" "\"TFF\"" 
	)
	(parameter
		"LPM_SVALUE"
		""
		"Unsigned value associated with the sset port"
	)
	(parameter
		"LPM_WIDTH"
		"8"
		"Width of I/O, any integer > 0"
		" 1" " 2" " 3" " 4" " 5" " 6" " 7" " 8" " 9" "10" "11" "12" "13" "14" "15" "16" "20" "24" "28" "32" "40" "48" "56" "64" 
	)
	(drawing
		(line (pt 16 16)(pt 160 16))
		(line (pt 16 128)(pt 160 128))
		(line (pt 160 128)(pt 160 16))
		(line (pt 16 128)(pt 16 16))
		(line (pt 16 80)(pt 24 88))
		(line (pt 24 88)(pt 16 96))
	)
	(annotation_block (parameter)(rect 216 360 353 455))
)
(symbol
	(rect 1008 216 1184 360)
	(text "LPM_FF" (rect 19 0 78 16)(font "Arial" (font_size 10)))
	(text "inst3" (rect 3 133 25 150)(font "Intel Clear" ))
	(port
		(pt 0 104)
		(input)
		(text "enable" (rect 20 97 57 111)(font "Arial" (font_size 8)))
		(text "enable" (rect 20 97 57 111)(font "Arial" (font_size 8)))
		(line (pt 0 104)(pt 16 104))
	)
	(port
		(pt 0 88)
		(input)
		(text "clock" (rect 20 81 49 95)(font "Arial" (font_size 8))(invisible))
		(text "clock" (rect 20 81 49 95)(font "Arial" (font_size 8))(invisible))
		(line (pt 0 88)(pt 16 88))
	)
	(port
		(pt 0 24)
		(input)
		(text "aload" (rect 20 17 50 31)(font "Arial" (font_size 8)))
		(text "aload" (rect 20 17 50 31)(font "Arial" (font_size 8)))
		(line (pt 0 24)(pt 16 24))
	)
	(port
		(pt 0 40)
		(input)
		(text "sset" (rect 20 33 44 47)(font "Arial" (font_size 8)))
		(text "sset" (rect 20 33 44 47)(font "Arial" (font_size 8)))
		(line (pt 0 40)(pt 16 40))
	)
	(port
		(pt 0 56)
		(input)
		(text "sload" (rect 20 49 50 63)(font "Arial" (font_size 8)))
		(text "sload" (rect 20 49 50 63)(font "Arial" (font_size 8)))
		(line (pt 0 56)(pt 16 56))
	)
	(port
		(pt 88 0)
		(input)
		(text "aset" (rect 79 17 103 31)(font "Arial" (font_size 8)))
		(text "aset" (rect 79 17 103 31)(font "Arial" (font_size 8)))
		(line (pt 88 16)(pt 88 0))
	)
	(port
		(pt 0 120)
		(input)
		(text "sclr" (rect 20 113 41 127)(font "Arial" (font_size 8)))
		(text "sclr" (rect 20 113 41 127)(font "Arial" (font_size 8)))
		(line (pt 0 120)(pt 16 120))
	)
	(port
		(pt 88 144)
		(input)
		(text "aclr" (rect 80 113 101 127)(font "Arial" (font_size 8)))
		(text "aclr" (rect 80 113 101 127)(font "Arial" (font_size 8)))
		(line (pt 88 144)(pt 88 128))
	)
	(port
		(pt 0 72)
		(input)
		(text "data[LPM_WIDTH-1..0]" (rect 20 63 146 77)(font "Arial" (font_size 8)))
		(text "data[]" (rect 20 63 51 77)(font "Arial" (font_size 8)))
		(line (pt 0 72)(pt 16 72)(line_width 3))
	)
	(port
		(pt 176 88)
		(output)
		(text "q[LPM_WIDTH-1..0]" (rect 144 81 252 95)(font "Arial" (font_size 8)))
		(text "q[]" (rect 144 81 158 95)(font "Arial" (font_size 8)))
		(line (pt 160 88)(pt 176 88)(line_width 3))
	)
	(parameter
		"LPM_AVALUE"
		""
		"Unsigned value associated with the aset port"
	)
	(parameter
		"LPM_FFTYPE"
		""
		"Selects behavior as DFF or TFF"
		"\"DFF\"" "\"TFF\"" 
	)
	(parameter
		"LPM_SVALUE"
		""
		"Unsigned value associated with the sset port"
	)
	(parameter
		"LPM_WIDTH"
		"12"
		"Width of I/O, any integer > 0"
		" 1" " 2" " 3" " 4" " 5" " 6" " 7" " 8" " 9" "10" "11" "12" "13" "14" "15" "16" "20" "24" "28" "32" "40" "48" "56" "64" 
	)
	(drawing
		(line (pt 16 16)(pt 160 16))
		(line (pt 16 128)(pt 160 128))
		(line (pt 160 128)(pt 160 16))
		(line (pt 16 128)(pt 16 16))
		(line (pt 16 80)(pt 24 88))
		(line (pt 24 88)(pt 16 96))
	)
	(annotation_block (parameter)(rect 1032 120 1169 215))
)
(connector
	(pt 368 216)
	(pt 464 216)
	(bus)
)
(connector
	(pt 376 544)
	(pt 376 536)
	(bus)
)
(connector
	(pt 368 544)
	(pt 376 544)
	(bus)
)
(connector
	(pt 376 536)
	(pt 464 536)
	(bus)
)
(connector
	(pt 120 200)
	(pt 192 200)
	(bus)
)
(connector
	(pt 464 216)
	(pt 464 304)
	(bus)
)
(connector
	(pt 464 536)
	(pt 464 320)
	(bus)
)
(connector
	(pt 1008 288)
	(pt 904 288)
	(bus)
)
(connector
	(pt 464 304)
	(pt 648 304)
	(bus)
)
(connector
	(pt 464 320)
	(pt 648 320)
	(bus)
)
(connector
	(pt 584 128)
	(pt 608 128)
)
(connector
	(pt 648 288)
	(pt 608 288)
)
(connector
	(pt 608 288)
	(pt 608 128)
)
(connector
	(pt 112 528)
	(pt 192 528)
	(bus)
)
(connector
	(pt 160 64)
	(pt 160 72)
)
(connector
	(text "clk" (rect 142 48 156 65)(font "Intel Clear" ))
	(pt 96 64)
	(pt 160 64)
)
(connector
	(text "clk" (rect 144 200 158 217)(font "Intel Clear" ))
	(pt 192 216)
	(pt 136 216)
)
(connector
	(text "clk" (rect 136 528 150 545)(font "Intel Clear" ))
	(pt 192 544)
	(pt 128 544)
)
(connector
	(text "clk" (rect 960 288 974 305)(font "Intel Clear" ))
	(pt 1008 304)
	(pt 952 304)
)
(connector
	(pt 1184 304)
	(pt 1272 304)
	(bus)
)
